 FSITE    SITECOM.DAT
 FSUBA    SUBACOM.DAT
 FWPM     WPM1US.DAT
 FWIND    WINDUS.DAT
 FCROP    CROPCOM.DAT
 FTILL    TILLCOM.DAT
 FPEST    PESTCOM.DAT
 FFERT    FERTCOM.DAT
 FSOIL    SOILCOM.DAT
 FOPSC    OPSCCOM.DAT
 FTR55    TR55COM.DAT
 FPARM    PARM1501.DAT
 FMLRN    MLRN1501.DAT
 FPRNT    PRNT1501.DAT
 FHERD    HERDMGZ.DAT 
 FWLST    WDLSTCOM.DAT
 FPSOD    PSOCOM.DAT
 FRFDT    RFDTCOM.DAT