 10 1960   1   1   6  -1   0   0   0   4   1   0   0   0   0  0 1000   0   1   1
   0   0  30   0   0   0   5   0   0   0   7   0   2   0   1   0   0   0   0   0   0   0   0
     .80  330.00     .00    1.00   10.00     .00     .00   95.00     .50     .05
      3.   20.00     .10     50.     .00   .0001    1.00    1.24     .62     .00
     .30  500.00    1.00      2.    100.     .00     .00      1.      0.      0.
     4.0    0.00      .5      0.      0.      0.      .1      1.    1.58    0.56    0.56    0.12     
          

