   1      0.      3.      0.     10.      8.     20.
   1      0.      1.      0.     15.      8.     25.
   1      0.      4.      0.      8.      6.     15.
   
   
   1      0.      2.      0.     14.     7.0     25.
   





